Ware House Code,Sub Inventory,Tool Part Number,Serial Number,"Status(Good -G , Defective - D)",Status remarks,Calibration Supplier,Calibrated Date,Calibration Due Date,Asset Remarks(about whole asset),date of use,quantity,PO Number ,Earpe Number ,Cost,Currency,Cost in INR,Asset Number,Running Serial Number,Country Name
,,,,,,,,,,,,,,,,,,,
,,,,,,,,,,,,,,,,,,,
,,,,,,,,,,,,,,,,,,,
